
./octez-client --protocol ProtoALphaALphaALphaALphaALphaALphaALphaALphaDdp3zK --mode mockup --no-base-dir-warnings run script michelson_test_scripts/opcodes/slice_bytes.tz on storage None and input 'Pair 0 1' --level 1 --trace-stack
storage
  None
emitted operations
  
big_map diff
  
trace
  - location: 10 (just consumed gas: 9.002)
    [ (Pair (Pair 0 1) None) ]
  - location: 10 (just consumed gas: 0.010)
    [ (Pair 0 1)
      None ]
  - location: 11 (just consumed gas: 0.010)
    [ None
      (Pair 0 1) ]
  - location: 13 (just consumed gas: 0.010)
    [ (Pair 0 1) ]
  - location: 15 (just consumed gas: 0.010)
    [  ]
  - location: 16 (just consumed gas: 0.010)
    [ None ]
  - location: 13 (just consumed gas: 0.025)
    [ None ]
  - location: 22 (just consumed gas: 0.010)
    [ {}
      None ]
  - location: 24 (just consumed gas: 0.010)
    [ (Pair {} None) ]

