
./octez-client --protocol ProtoALphaALphaALphaALphaALphaALphaALphaALphaDdp3zK --mode mockup --no-base-dir-warnings run script michelson_test_scripts/opcodes/int.tz on storage None and input 9999 --level 1 --trace-stack
storage
  (Some 9999)
emitted operations
  
big_map diff
  
trace
  - location: 8 (just consumed gas: 4.898)
    [ (Pair 9999 None) ]
  - location: 8 (just consumed gas: 0.010)
    [ 9999 ]
  - location: 9 (just consumed gas: 0.010)
    [ 9999 ]
  - location: 10 (just consumed gas: 0.010)
    [ (Some 9999) ]
  - location: 11 (just consumed gas: 0.010)
    [ {}
      (Some 9999) ]
  - location: 13 (just consumed gas: 0.010)
    [ (Pair {} (Some 9999)) ]

