
./octez-client --protocol ProtoALphaALphaALphaALphaALphaALphaALphaALphaDdp3zK --mode mockup --no-base-dir-warnings run script michelson_test_scripts/opcodes/comb-set-2.tz on storage None and input '(Pair 1 4 2 Unit)' --level 1 --trace-stack
storage
  (Some (Pair 2 4 "toto" 0x01))
emitted operations
  
big_map diff
  
trace
  - location: 16 (just consumed gas: 12.461)
    [ (Pair (Pair 1 4 2 Unit) None) ]
  - location: 16 (just consumed gas: 0.010)
    [ (Pair 1 4 2 Unit) ]
  - location: 17 (just consumed gas: 0.010)
    [ 2
      (Pair 1 4 2 Unit) ]
  - location: 20 (just consumed gas: 0.031)
    [ (Pair 2 4 2 Unit) ]
  - location: 22 (just consumed gas: 0.010)
    [ "toto"
      (Pair 2 4 2 Unit) ]
  - location: 25 (just consumed gas: 0.036)
    [ (Pair 2 4 "toto" Unit) ]
  - location: 27 (just consumed gas: 0.010)
    [ 0x01
      (Pair 2 4 "toto" Unit) ]
  - location: 30 (just consumed gas: 0.037)
    [ (Pair 2 4 "toto" 0x01) ]
  - location: 32 (just consumed gas: 0.010)
    [ (Some (Pair 2 4 "toto" 0x01)) ]
  - location: 33 (just consumed gas: 0.010)
    [ {}
      (Some (Pair 2 4 "toto" 0x01)) ]
  - location: 35 (just consumed gas: 0.010)
    [ (Pair {} (Some (Pair 2 4 "toto" 0x01))) ]

