
./octez-client --protocol ProtoALphaALphaALphaALphaALphaALphaALphaALphaDdp3zK --mode mockup --no-base-dir-warnings run script michelson_test_scripts/opcodes/voting_power.tz on storage '(Pair 0 0)' and input '"edpkuBknW28nW72KG6RoHtYW7p12T6GKc7nAbwYX5m8Wd9sDVC9yav"' --level 1 --trace-stack
storage
  (Pair 4000000000000 20000000000000)
emitted operations
  
big_map diff
  
trace
  - location: 9 (just consumed gas: 86.154)
    [ (Pair "edpkuBknW28nW72KG6RoHtYW7p12T6GKc7nAbwYX5m8Wd9sDVC9yav" 0 0) ]
  - location: 9 (just consumed gas: 0.010)
    [ "edpkuBknW28nW72KG6RoHtYW7p12T6GKc7nAbwYX5m8Wd9sDVC9yav" ]
  - location: 10 (just consumed gas: 0.605)
    [ "tz1KqTpEZ7Yob7QbPE4Hy4Wo8fHG8LhKxZSx" ]
  - location: 11 (just consumed gas: 220.656)
    [ 4000000000000 ]
  - location: 12 (just consumed gas: 0.010)
    [  ]
  - location: 14 (just consumed gas: 210.466)
    [ 20000000000000 ]
  - location: 12 (just consumed gas: 0.035)
    [ 4000000000000
      20000000000000 ]
  - location: 15 (just consumed gas: 0.010)
    [ (Pair 4000000000000 20000000000000) ]
  - location: 16 (just consumed gas: 0.010)
    [ {}
      (Pair 4000000000000 20000000000000) ]
  - location: 18 (just consumed gas: 0.010)
    [ (Pair {} 4000000000000 20000000000000) ]

